         run       event       nTopo   nIdTracks  nTauTracks       nTaus      nMuons       nElec   nTrueElec   nFakeElec       nPhot   nTruePhot   nFakePhot
      284500   225293001          89          87          26           6           0           6           2           4           7           4           3
      284500   225293015          94          89          49           7           1          11           3           8           4           3           1
      284500   225293027         103          85          38           6           2           6           1           5           9           8           1
      284500   225293035          37          41          17           4           0           6           3           3           2           1           1
      284500   225293042         154         142          44           6           2           7           0           7          14           9           5
      284500   225293053          37          34          23           4           2           5           1           4           6           3           3
      284500   225293058         128          88          41           5           0          10           2           8           9           8           1
      284500   225293067          82          85          45           7           0          11           3           8           8           7           1
      284500   225293078          70          70          28           5           0          10           1           9           3           1           2
      284500   225293084          54          49          39           5           2          13           1          12          13           7           6
      284500   225293090          58          54          22           4           0           9           0           9           4           4           0
      284500   225293095          72          55          39           6           1          14           1          13           6           2           4
      284500   225293101          55          57          23           5           1           5           2           3           7           5           2
      284500   225293112          67          59          17           3           3           8           3           5           7           6           1
      284500   225293121          48          49          30           6           0          11           0          11           5           2           3
      284500   225293125         135         156          73           8           3          13           2          11          14           7           7
      284500   225293134          73          57          28           6           1          11           1          10           8           6           2
      284500   225293140          67          62          33           6           1           8           1           7           9           5           4
      284500   225293147          80          71          45           7           1          10           0          10          10           8           2
      284500   225293152          46          63          24           3           0           7           2           5           4           2           2
      284500   225293163          63          53          12           4           0           3           2           1           5           2           3
      284500   225293175          40          47          23           4           1           4           2           2           6           3           3
      284500   225293183          42          50          43           6           0           8           3           5           5           4           1
      284500   225293188         145         128          72          11           3          12           2          10          18          12           6
      284500   225293200          43          32          16           4           1           4           0           4           5           3           2
